{
  "mobile_import": {
    "imported": 0,
    "skipped": 5,
    "total_processed": 5,
    "errors": [],
    "message": "Successfully imported 0 contacts"
  },
  "duplicate_import": {
    "imported": 0,
    "skipped": 2,
    "total_processed": 2,
    "errors": [],
    "message": "Successfully imported 0 contacts"
  },
  "contact_list": {
    "count": 301,
    "next": "http://127.0.0.1:8001/api/messaging/contacts/?page=2",
    "previous": null,
    "results": [
      {
        "id": "0a770470-2d1a-492e-bb50-28103d17d946",
        "name": "Joseph Mtega",
        "phone_e164": "+255772955046",
        "email": "",
        "attributes": {},
        "tags": [],
        "opt_in_at": null,
        "opt_out_at": null,
        "opt_out_reason": "",
        "is_active": true,
        "last_contacted_at": null,
        "is_opted_in": null,
        "created_by": "admin@mifumo.com",
        "created_by_id": 2,
        "created_at": "2025-10-23T02:12:04.079222+03:00",
        "updated_at": "2025-10-23T02:12:04.079222+03:00"
      },
      {
        "id": "8e64a219-ceb9-4e6c-9afd-4464a65acd64",
        "name": "Anna Suleiman",
        "phone_e164": "+255613060049",
        "email": "",
        "attributes": {},
        "tags": [],
        "opt_in_at": null,
        "opt_out_at": null,
        "opt_out_reason": "",
        "is_active": true,
        "last_contacted_at": null,
        "is_opted_in": null,
        "created_by": "admin@mifumo.com",
        "created_by_id": 2,
        "created_at": "2025-10-23T02:12:03.975304+03:00",
        "updated_at": "2025-10-23T02:12:03.975304+03:00"
      },
      {
        "id": "d29d9045-f6a9-42a2-adce-5d9ec461b129",
        "name": "George Mziray",
        "phone_e164": "+255782487349",
        "email": "",
        "attributes": {},
        "tags": [],
        "opt_in_at": null,
        "opt_out_at": null,
        "opt_out_reason": "",
        "is_active": true,
        "last_contacted_at": null,
        "is_opted_in": null,
        "created_by": "admin@mifumo.com",
        "created_by_id": 2,
        "created_at": "2025-10-23T02:12:03.880145+03:00",
        "updated_at": "2025-10-23T02:12:03.880145+03:00"
      },
      {
        "id": "e4a9678a-2730-4367-a231-85bef1ef8c82",
        "name": "Joseph Mtega",
        "phone_e164": "+255643048213",
        "email": "",
        "attributes": {},
        "tags": [],
        "opt_in_at": null,
        "opt_out_at": null,
        "opt_out_reason": "",
        "is_active": true,
        "last_contacted_at": null,
        "is_opted_in": null,
        "created_by": "admin@mifumo.com",
        "created_by_id": 2,
        "created_at": "2025-10-23T02:12:03.782296+03:00",
        "updated_at": "2025-10-23T02:12:03.782296+03:00"
      },
      {
        "id": "c2c67994-ba65-4bc9-a47c-1340f3ad566d",
        "name": "Hassan Mrema",
        "phone_e164": "+255636335411",
        "email": "",
        "attributes": {},
        "tags": [],
        "opt_in_at": null,
        "opt_out_at": null,
        "opt_out_reason": "",
        "is_active": true,
        "last_contacted_at": null,
        "is_opted_in": null,
        "created_by": "admin@mifumo.com",
        "created_by_id": 2,
        "created_at": "2025-10-23T02:12:03.684652+03:00",
        "updated_at": "2025-10-23T02:12:03.684652+03:00"
      },
      {
        "id": "d3b4a347-ae83-4f2f-ae18-f12af4a8209c",
        "name": "Robert Mwita",
        "phone_e164": "+255610571318",
        "email": "",
        "attributes": {},
        "tags": [],
        "opt_in_at": null,
        "opt_out_at": null,
        "opt_out_reason": "",
        "is_active": true,
        "last_contacted_at": null,
        "is_opted_in": null,
        "created_by": "admin@mifumo.com",
        "created_by_id": 2,
        "created_at": "2025-10-23T02:12:03.574743+03:00",
        "updated_at": "2025-10-23T02:12:03.574743+03:00"
      },
      {
        "id": "0c9be03c-e462-40a4-a905-b73d2ade3a35",
        "name": "Emmanuel Mbilinyi",
        "phone_e164": "+255795128871",
        "email": "",
        "attributes": {},
        "tags": [],
        "opt_in_at": null,
        "opt_out_at": null,
        "opt_out_reason": "",
        "is_active": true,
        "last_contacted_at": null,
        "is_opted_in": null,
        "created_by": "admin@mifumo.com",
        "created_by_id": 2,
        "created_at": "2025-10-23T02:12:03.456073+03:00",
        "updated_at": "2025-10-23T02:12:03.456073+03:00"
      },
      {
        "id": "02ae95bd-6670-44dc-aa2f-12d6c12f3edb",
        "name": "David Shayo",
        "phone_e164": "+255786099665",
        "email": "",
        "attributes": {},
        "tags": [],
        "opt_in_at": null,
        "opt_out_at": null,
        "opt_out_reason": "",
        "is_active": true,
        "last_contacted_at": null,
        "is_opted_in": null,
        "created_by": "admin@mifumo.com",
        "created_by_id": 2,
        "created_at": "2025-10-23T02:12:03.323651+03:00",
        "updated_at": "2025-10-23T02:12:03.323651+03:00"
      },
      {
        "id": "054c4a4a-6692-49bc-b62d-dd7a410136d6",
        "name": "David Chacha",
        "phone_e164": "+255607255965",
        "email": "",
        "attributes": {},
        "tags": [],
        "opt_in_at": null,
        "opt_out_at": null,
        "opt_out_reason": "",
        "is_active": true,
        "last_contacted_at": null,
        "is_opted_in": null,
        "created_by": "admin@mifumo.com",
        "created_by_id": 2,
        "created_at": "2025-10-23T02:12:03.213901+03:00",
        "updated_at": "2025-10-23T02:12:03.213901+03:00"
      },
      {
        "id": "a6a8a757-75c3-44bb-963f-5347be6a6d46",
        "name": "Fatma Kweka",
        "phone_e164": "+255701026218",
        "email": "",
        "attributes": {},
        "tags": [],
        "opt_in_at": null,
        "opt_out_at": null,
        "opt_out_reason": "",
        "is_active": true,
        "last_contacted_at": null,
        "is_opted_in": null,
        "created_by": "admin@mifumo.com",
        "created_by_id": 2,
        "created_at": "2025-10-23T02:12:03.096481+03:00",
        "updated_at": "2025-10-23T02:12:03.096481+03:00"
      },
      {
        "id": "990946f2-74b5-44d2-b873-47087186e1c5",
        "name": "Asha Masika",
        "phone_e164": "+255758828915",
        "email": "",
        "attributes": {},
        "tags": [],
        "opt_in_at": null,
        "opt_out_at": null,
        "opt_out_reason": "",
        "is_active": true,
        "last_contacted_at": null,
        "is_opted_in": null,
        "created_by": "admin@mifumo.com",
        "created_by_id": 2,
        "created_at": "2025-10-23T02:12:02.999666+03:00",
        "updated_at": "2025-10-23T02:12:03.000670+03:00"
      },
      {
        "id": "33aef29c-c946-4ab6-9080-091e82fe71e5",
        "name": "Gloria Mwita",
        "phone_e164": "+255703564288",
        "email": "",
        "attributes": {},
        "tags": [],
        "opt_in_at": null,
        "opt_out_at": null,
        "opt_out_reason": "",
        "is_active": true,
        "last_contacted_at": null,
        "is_opted_in": null,
        "created_by": "admin@mifumo.com",
        "created_by_id": 2,
        "created_at": "2025-10-23T02:12:02.883373+03:00",
        "updated_at": "2025-10-23T02:12:02.883373+03:00"
      },
      {
        "id": "f4e873c8-a219-43ae-8dde-5ff7ef01c896",
        "name": "John Kimaro",
        "phone_e164": "+255622435686",
        "email": "",
        "attributes": {},
        "tags": [],
        "opt_in_at": null,
        "opt_out_at": null,
        "opt_out_reason": "",
        "is_active": true,
        "last_contacted_at": null,
        "is_opted_in": null,
        "created_by": "admin@mifumo.com",
        "created_by_id": 2,
        "created_at": "2025-10-23T02:12:02.767014+03:00",
        "updated_at": "2025-10-23T02:12:02.767014+03:00"
      },
      {
        "id": "af19d220-877c-4da9-b6f5-f690508a341a",
        "name": "Fatma Mussa",
        "phone_e164": "+255679347456",
        "email": "",
        "attributes": {},
        "tags": [],
        "opt_in_at": null,
        "opt_out_at": null,
        "opt_out_reason": "",
        "is_active": true,
        "last_contacted_at": null,
        "is_opted_in": null,
        "created_by": "admin@mifumo.com",
        "created_by_id": 2,
        "created_at": "2025-10-23T02:12:02.668320+03:00",
        "updated_at": "2025-10-23T02:12:02.668320+03:00"
      },
      {
        "id": "e4fb7067-bc14-4cbe-a5b9-eb87502c800e",
        "name": "Neema Mwita",
        "phone_e164": "+255618547089",
        "email": "",
        "attributes": {},
        "tags": [],
        "opt_in_at": null,
        "opt_out_at": null,
        "opt_out_reason": "",
        "is_active": true,
        "last_contacted_at": null,
        "is_opted_in": null,
        "created_by": "admin@mifumo.com",
        "created_by_id": 2,
        "created_at": "2025-10-23T02:12:02.584856+03:00",
        "updated_at": "2025-10-23T02:12:02.585848+03:00"
      },
      {
        "id": "097b0a15-7ce0-4692-a6bd-a0f7b8ead716",
        "name": "David Chacha",
        "phone_e164": "+255694343369",
        "email": "",
        "attributes": {},
        "tags": [],
        "opt_in_at": null,
        "opt_out_at": null,
        "opt_out_reason": "",
        "is_active": true,
        "last_contacted_at": null,
        "is_opted_in": null,
        "created_by": "admin@mifumo.com",
        "created_by_id": 2,
        "created_at": "2025-10-23T02:12:02.489170+03:00",
        "updated_at": "2025-10-23T02:12:02.489170+03:00"
      },
      {
        "id": "c4b77d74-9199-49e8-8793-eeb79699f0c5",
        "name": "Peter Ndallahwa",
        "phone_e164": "+255681923799",
        "email": "",
        "attributes": {},
        "tags": [],
        "opt_in_at": null,
        "opt_out_at": null,
        "opt_out_reason": "",
        "is_active": true,
        "last_contacted_at": null,
        "is_opted_in": null,
        "created_by": "admin@mifumo.com",
        "created_by_id": 2,
        "created_at": "2025-10-23T02:12:02.395382+03:00",
        "updated_at": "2025-10-23T02:12:02.395382+03:00"
      },
      {
        "id": "573cd4e5-d47e-4955-8c10-73ac72f1a7f5",
        "name": "Abdul Ndallahwa",
        "phone_e164": "+255776703665",
        "email": "",
        "attributes": {},
        "tags": [],
        "opt_in_at": null,
        "opt_out_at": null,
        "opt_out_reason": "",
        "is_active": true,
        "last_contacted_at": null,
        "is_opted_in": null,
        "created_by": "admin@mifumo.com",
        "created_by_id": 2,
        "created_at": "2025-10-23T02:12:02.295382+03:00",
        "updated_at": "2025-10-23T02:12:02.295382+03:00"
      },
      {
        "id": "6179e1bb-1f35-4a2e-9994-6e12e7cd0849",
        "name": "Juma Chacha",
        "phone_e164": "+255723550694",
        "email": "",
        "attributes": {},
        "tags": [],
        "opt_in_at": null,
        "opt_out_at": null,
        "opt_out_reason": "",
        "is_active": true,
        "last_contacted_at": null,
        "is_opted_in": null,
        "created_by": "admin@mifumo.com",
        "created_by_id": 2,
        "created_at": "2025-10-23T02:12:02.189551+03:00",
        "updated_at": "2025-10-23T02:12:02.189551+03:00"
      },
      {
        "id": "9425a200-858e-48d5-88e5-023823faac2a",
        "name": "Abdallah Kapaya",
        "phone_e164": "+255730031764",
        "email": "",
        "attributes": {},
        "tags": [],
        "opt_in_at": null,
        "opt_out_at": null,
        "opt_out_reason": "",
        "is_active": true,
        "last_contacted_at": null,
        "is_opted_in": null,
        "created_by": "admin@mifumo.com",
        "created_by_id": 2,
        "created_at": "2025-10-23T02:12:02.091385+03:00",
        "updated_at": "2025-10-23T02:12:02.091385+03:00"
      }
    ]
  }
}